-- Merging decision tree log ---
manifest
ADDED from D:\android-Camera2Basic-master\Application\src\main\AndroidManifest.xml:18:1-42:12
MERGED from [com.google.firebase:firebase-ml-vision:23.0.0] C:\Users\presa\.gradle\caches\transforms-2\files-2.1\549fe3ab61b17fdb4f7c9f51f87c3f7d\firebase-ml-vision-23.0.0\AndroidManifest.xml:2:1-18:12
MERGED from [androidx.legacy:legacy-support-v13:1.0.0] C:\Users\presa\.gradle\caches\transforms-2\files-2.1\82e544d3c3c8f788aa4ac329b2641a6e\legacy-support-v13-1.0.0\AndroidManifest.xml:17:1-22:12
MERGED from [androidx.legacy:legacy-support-v4:1.0.0] C:\Users\presa\.gradle\caches\transforms-2\files-2.1\78948776546368d752f57d4af80cff4f\legacy-support-v4-1.0.0\AndroidManifest.xml:17:1-22:12
MERGED from [androidx.cardview:cardview:1.0.0] C:\Users\presa\.gradle\caches\transforms-2\files-2.1\88d46ce597d410c8d9a1addcd2777129\cardview-1.0.0\AndroidManifest.xml:17:1-22:12
MERGED from [androidx.appcompat:appcompat:1.0.0] C:\Users\presa\.gradle\caches\transforms-2\files-2.1\db46b13d3b2010db442dd5a45676e816\appcompat-1.0.0\AndroidManifest.xml:17:1-22:12
MERGED from [androidx.exifinterface:exifinterface:1.0.0] C:\Users\presa\.gradle\caches\transforms-2\files-2.1\9b17c268919ccf64f4fc8447e7350842\exifinterface-1.0.0\AndroidManifest.xml:17:1-22:12
MERGED from [com.google.android.gms:play-services-auth-base:17.0.0] C:\Users\presa\.gradle\caches\transforms-2\files-2.1\aa2ad13971d38900612758e2f62a2fd8\play-services-auth-base-17.0.0\AndroidManifest.xml:2:1-7:12
MERGED from [com.google.android.gms:play-services-vision:18.0.0] C:\Users\presa\.gradle\caches\transforms-2\files-2.1\055b3fff76351920a108716f6f30f9af\play-services-vision-18.0.0\AndroidManifest.xml:2:1-9:12
MERGED from [com.google.android.gms:play-services-vision-image-label:18.0.0] C:\Users\presa\.gradle\caches\transforms-2\files-2.1\9bc86e3feb72b06887ee2a4754da19ef\play-services-vision-image-label-18.0.0\AndroidManifest.xml:2:1-9:12
MERGED from [com.google.android.gms:play-services-vision-common:18.0.0] C:\Users\presa\.gradle\caches\transforms-2\files-2.1\af25aa140282d81926a8061778810034\play-services-vision-common-18.0.0\AndroidManifest.xml:2:1-9:12
MERGED from [com.google.firebase:firebase-ml-common:21.0.0] C:\Users\presa\.gradle\caches\transforms-2\files-2.1\adc041acf1828d2648ffd63edc4b2d7a\firebase-ml-common-21.0.0\AndroidManifest.xml:2:1-17:12
MERGED from [com.google.android.gms:play-services-clearcut:17.0.0] C:\Users\presa\.gradle\caches\transforms-2\files-2.1\8d2e5bdc8e2afd0cf484a0d6eca9f960\play-services-clearcut-17.0.0\AndroidManifest.xml:17:1-24:12
MERGED from [com.google.android.gms:play-services-flags:17.0.0] C:\Users\presa\.gradle\caches\transforms-2\files-2.1\8d5c54ff533a7f542f5825ba614a2f0e\play-services-flags-17.0.0\AndroidManifest.xml:17:1-22:12
MERGED from [com.google.android.gms:play-services-phenotype:17.0.0] C:\Users\presa\.gradle\caches\transforms-2\files-2.1\e7eacb620055dfca96dbba09e0eebcc0\play-services-phenotype-17.0.0\AndroidManifest.xml:17:1-24:12
MERGED from [com.google.firebase:firebase-iid:19.0.0] C:\Users\presa\.gradle\caches\transforms-2\files-2.1\957b0793de52737dcb2d552fb13bbbac\firebase-iid-19.0.0\AndroidManifest.xml:17:1-47:12
MERGED from [com.google.firebase:firebase-iid-interop:17.0.0] C:\Users\presa\.gradle\caches\transforms-2\files-2.1\5a8936eaac73f4db15dafeeb15844fce\firebase-iid-interop-17.0.0\AndroidManifest.xml:2:1-10:12
MERGED from [com.google.android.gms:play-services-base:17.0.0] C:\Users\presa\.gradle\caches\transforms-2\files-2.1\61050d192d7b40096effddbc75f65a23\play-services-base-17.0.0\AndroidManifest.xml:17:1-29:12
MERGED from [com.google.firebase:firebase-common:19.0.0] C:\Users\presa\.gradle\caches\transforms-2\files-2.1\daa9c6651247b129963b4bac8e5dd40c\firebase-common-19.0.0\AndroidManifest.xml:2:1-19:12
MERGED from [com.google.android.gms:play-services-tasks:17.0.0] C:\Users\presa\.gradle\caches\transforms-2\files-2.1\dffe7cebfa4e6032ec3fea966723cfe7\play-services-tasks-17.0.0\AndroidManifest.xml:2:1-9:12
MERGED from [com.google.android.gms:play-services-stats:17.0.0] C:\Users\presa\.gradle\caches\transforms-2\files-2.1\313c8cab0ccb16f540d1ac3134a9a676\play-services-stats-17.0.0\AndroidManifest.xml:2:1-9:12
MERGED from [com.google.android.gms:play-services-basement:17.0.0] C:\Users\presa\.gradle\caches\transforms-2\files-2.1\3fd9097e2e9f30b3a98bceeedb85d579\jetified-play-services-basement-17.0.0\AndroidManifest.xml:17:1-28:12
MERGED from [androidx.media:media:1.0.0] C:\Users\presa\.gradle\caches\transforms-2\files-2.1\4d1cf7827ab5fc64a2e749e21bd2db69\media-1.0.0\AndroidManifest.xml:17:1-22:12
MERGED from [androidx.fragment:fragment:1.0.0] C:\Users\presa\.gradle\caches\transforms-2\files-2.1\ee1ec9f89f00f8cddce4510008e1edca\fragment-1.0.0\AndroidManifest.xml:17:1-22:12
MERGED from [androidx.vectordrawable:vectordrawable-animated:1.0.0] C:\Users\presa\.gradle\caches\transforms-2\files-2.1\e0d8aedfaec9936262ca213e73dd4b9f\vectordrawable-animated-1.0.0\AndroidManifest.xml:17:1-22:12
MERGED from [androidx.legacy:legacy-support-core-ui:1.0.0] C:\Users\presa\.gradle\caches\transforms-2\files-2.1\17b125378fc55b264e31eccaff8fa6ca\legacy-support-core-ui-1.0.0\AndroidManifest.xml:17:1-22:12
MERGED from [androidx.legacy:legacy-support-core-utils:1.0.0] C:\Users\presa\.gradle\caches\transforms-2\files-2.1\240b5d9dac701614a3199e1fe97e5b6c\legacy-support-core-utils-1.0.0\AndroidManifest.xml:17:1-22:12
MERGED from [androidx.vectordrawable:vectordrawable:1.0.0] C:\Users\presa\.gradle\caches\transforms-2\files-2.1\29ce464ac5ca0958a20e02a1ba3f00ec\vectordrawable-1.0.0\AndroidManifest.xml:17:1-22:12
MERGED from [androidx.loader:loader:1.0.0] C:\Users\presa\.gradle\caches\transforms-2\files-2.1\6d12fcce36df08538717b88e14b43a49\loader-1.0.0\AndroidManifest.xml:17:1-22:12
MERGED from [androidx.viewpager:viewpager:1.0.0] C:\Users\presa\.gradle\caches\transforms-2\files-2.1\955a6585d7a9c18d6bf6a87f6ee65069\viewpager-1.0.0\AndroidManifest.xml:17:1-22:12
MERGED from [androidx.coordinatorlayout:coordinatorlayout:1.0.0] C:\Users\presa\.gradle\caches\transforms-2\files-2.1\4536f117103b705f94cfbc0bddba178d\coordinatorlayout-1.0.0\AndroidManifest.xml:17:1-22:12
MERGED from [androidx.drawerlayout:drawerlayout:1.0.0] C:\Users\presa\.gradle\caches\transforms-2\files-2.1\5e8839c5fdf906c0d681ada18dc250c8\drawerlayout-1.0.0\AndroidManifest.xml:17:1-22:12
MERGED from [androidx.slidingpanelayout:slidingpanelayout:1.0.0] C:\Users\presa\.gradle\caches\transforms-2\files-2.1\b62690d9dde2a6a00a94a6af7c0f163c\slidingpanelayout-1.0.0\AndroidManifest.xml:17:1-22:12
MERGED from [androidx.customview:customview:1.0.0] C:\Users\presa\.gradle\caches\transforms-2\files-2.1\36abab4db82c302e39d424a4f8f4e29e\customview-1.0.0\AndroidManifest.xml:17:1-22:12
MERGED from [androidx.swiperefreshlayout:swiperefreshlayout:1.0.0] C:\Users\presa\.gradle\caches\transforms-2\files-2.1\f8948b0232052db3e7b8f03c891701f8\swiperefreshlayout-1.0.0\AndroidManifest.xml:17:1-22:12
MERGED from [androidx.asynclayoutinflater:asynclayoutinflater:1.0.0] C:\Users\presa\.gradle\caches\transforms-2\files-2.1\853d26324799c26871954791069483df\asynclayoutinflater-1.0.0\AndroidManifest.xml:17:1-22:12
MERGED from [androidx.core:core:1.0.0] C:\Users\presa\.gradle\caches\transforms-2\files-2.1\c6efbb44fe0eccf93c45efc2f5961682\core-1.0.0\AndroidManifest.xml:17:1-24:12
MERGED from [androidx.versionedparcelable:versionedparcelable:1.0.0] C:\Users\presa\.gradle\caches\transforms-2\files-2.1\43c49b12233cfc1bc27316e9746a37f4\versionedparcelable-1.0.0\AndroidManifest.xml:17:1-25:12
MERGED from [androidx.cursoradapter:cursoradapter:1.0.0] C:\Users\presa\.gradle\caches\transforms-2\files-2.1\a7ed0ca913094dcd572a2a491ee77296\cursoradapter-1.0.0\AndroidManifest.xml:17:1-22:12
MERGED from [androidx.lifecycle:lifecycle-runtime:2.0.0] C:\Users\presa\.gradle\caches\transforms-2\files-2.1\43face5bbfcb9a9521bfe7a06757c249\lifecycle-runtime-2.0.0\AndroidManifest.xml:17:1-22:12
MERGED from [androidx.documentfile:documentfile:1.0.0] C:\Users\presa\.gradle\caches\transforms-2\files-2.1\e4a94d2054024c8be95b68226af78a53\documentfile-1.0.0\AndroidManifest.xml:17:1-22:12
MERGED from [androidx.localbroadcastmanager:localbroadcastmanager:1.0.0] C:\Users\presa\.gradle\caches\transforms-2\files-2.1\37caa00d68abfda0e932890140749490\localbroadcastmanager-1.0.0\AndroidManifest.xml:17:1-22:12
MERGED from [androidx.print:print:1.0.0] C:\Users\presa\.gradle\caches\transforms-2\files-2.1\e1d01877c650a22b3c257891754df4cc\print-1.0.0\AndroidManifest.xml:17:1-22:12
MERGED from [androidx.interpolator:interpolator:1.0.0] C:\Users\presa\.gradle\caches\transforms-2\files-2.1\0694e27135a967a4619b8381997d15ff\interpolator-1.0.0\AndroidManifest.xml:17:1-22:12
MERGED from [androidx.lifecycle:lifecycle-viewmodel:2.0.0] C:\Users\presa\.gradle\caches\transforms-2\files-2.1\34bd167e41796762d187a04a2472565c\lifecycle-viewmodel-2.0.0\AndroidManifest.xml:17:1-22:12
MERGED from [androidx.lifecycle:lifecycle-livedata:2.0.0] C:\Users\presa\.gradle\caches\transforms-2\files-2.1\cfc7a075599825242ccb3bf9049138d1\lifecycle-livedata-2.0.0\AndroidManifest.xml:17:1-22:12
MERGED from [androidx.lifecycle:lifecycle-livedata-core:2.0.0] C:\Users\presa\.gradle\caches\transforms-2\files-2.1\942ae5bb408d75da4f7f89b1ab4a5794\lifecycle-livedata-core-2.0.0\AndroidManifest.xml:17:1-22:12
MERGED from [androidx.arch.core:core-runtime:2.0.0] C:\Users\presa\.gradle\caches\transforms-2\files-2.1\3f7255e5c39577612d42757c6a1a973c\core-runtime-2.0.0\AndroidManifest.xml:17:1-22:12
	package
		ADDED from D:\android-Camera2Basic-master\Application\src\main\AndroidManifest.xml:19:5-47
	xmlns:android
		ADDED from D:\android-Camera2Basic-master\Application\src\main\AndroidManifest.xml:18:11-69
uses-permission#android.permission.CAMERA
ADDED from D:\android-Camera2Basic-master\Application\src\main\AndroidManifest.xml:21:5-65
	android:name
		ADDED from D:\android-Camera2Basic-master\Application\src\main\AndroidManifest.xml:21:22-62
uses-permission#android.permission.READ_EXTERNAL_STORAGE
ADDED from D:\android-Camera2Basic-master\Application\src\main\AndroidManifest.xml:22:5-80
	android:name
		ADDED from D:\android-Camera2Basic-master\Application\src\main\AndroidManifest.xml:22:22-77
uses-permission#android.permission.WRITE_EXTERNAL_STORAGE
ADDED from D:\android-Camera2Basic-master\Application\src\main\AndroidManifest.xml:23:5-81
	android:name
		ADDED from D:\android-Camera2Basic-master\Application\src\main\AndroidManifest.xml:23:22-78
uses-feature#android.hardware.camera
ADDED from D:\android-Camera2Basic-master\Application\src\main\AndroidManifest.xml:25:5-60
	android:name
		ADDED from D:\android-Camera2Basic-master\Application\src\main\AndroidManifest.xml:25:19-57
uses-feature#android.hardware.camera.autofocus
ADDED from D:\android-Camera2Basic-master\Application\src\main\AndroidManifest.xml:26:5-70
	android:name
		ADDED from D:\android-Camera2Basic-master\Application\src\main\AndroidManifest.xml:26:19-67
application
ADDED from D:\android-Camera2Basic-master\Application\src\main\AndroidManifest.xml:28:5-40:19
MERGED from [com.google.firebase:firebase-ml-vision:23.0.0] C:\Users\presa\.gradle\caches\transforms-2\files-2.1\549fe3ab61b17fdb4f7c9f51f87c3f7d\firebase-ml-vision-23.0.0\AndroidManifest.xml:8:5-16:19
MERGED from [com.google.firebase:firebase-ml-vision:23.0.0] C:\Users\presa\.gradle\caches\transforms-2\files-2.1\549fe3ab61b17fdb4f7c9f51f87c3f7d\firebase-ml-vision-23.0.0\AndroidManifest.xml:8:5-16:19
MERGED from [com.google.android.gms:play-services-vision:18.0.0] C:\Users\presa\.gradle\caches\transforms-2\files-2.1\055b3fff76351920a108716f6f30f9af\play-services-vision-18.0.0\AndroidManifest.xml:7:5-20
MERGED from [com.google.android.gms:play-services-vision:18.0.0] C:\Users\presa\.gradle\caches\transforms-2\files-2.1\055b3fff76351920a108716f6f30f9af\play-services-vision-18.0.0\AndroidManifest.xml:7:5-20
MERGED from [com.google.android.gms:play-services-vision-image-label:18.0.0] C:\Users\presa\.gradle\caches\transforms-2\files-2.1\9bc86e3feb72b06887ee2a4754da19ef\play-services-vision-image-label-18.0.0\AndroidManifest.xml:7:5-20
MERGED from [com.google.android.gms:play-services-vision-image-label:18.0.0] C:\Users\presa\.gradle\caches\transforms-2\files-2.1\9bc86e3feb72b06887ee2a4754da19ef\play-services-vision-image-label-18.0.0\AndroidManifest.xml:7:5-20
MERGED from [com.google.android.gms:play-services-vision-common:18.0.0] C:\Users\presa\.gradle\caches\transforms-2\files-2.1\af25aa140282d81926a8061778810034\play-services-vision-common-18.0.0\AndroidManifest.xml:7:5-20
MERGED from [com.google.android.gms:play-services-vision-common:18.0.0] C:\Users\presa\.gradle\caches\transforms-2\files-2.1\af25aa140282d81926a8061778810034\play-services-vision-common-18.0.0\AndroidManifest.xml:7:5-20
MERGED from [com.google.firebase:firebase-ml-common:21.0.0] C:\Users\presa\.gradle\caches\transforms-2\files-2.1\adc041acf1828d2648ffd63edc4b2d7a\firebase-ml-common-21.0.0\AndroidManifest.xml:7:5-15:19
MERGED from [com.google.firebase:firebase-ml-common:21.0.0] C:\Users\presa\.gradle\caches\transforms-2\files-2.1\adc041acf1828d2648ffd63edc4b2d7a\firebase-ml-common-21.0.0\AndroidManifest.xml:7:5-15:19
MERGED from [com.google.android.gms:play-services-clearcut:17.0.0] C:\Users\presa\.gradle\caches\transforms-2\files-2.1\8d2e5bdc8e2afd0cf484a0d6eca9f960\play-services-clearcut-17.0.0\AndroidManifest.xml:22:5-20
MERGED from [com.google.android.gms:play-services-clearcut:17.0.0] C:\Users\presa\.gradle\caches\transforms-2\files-2.1\8d2e5bdc8e2afd0cf484a0d6eca9f960\play-services-clearcut-17.0.0\AndroidManifest.xml:22:5-20
MERGED from [com.google.android.gms:play-services-phenotype:17.0.0] C:\Users\presa\.gradle\caches\transforms-2\files-2.1\e7eacb620055dfca96dbba09e0eebcc0\play-services-phenotype-17.0.0\AndroidManifest.xml:22:5-20
MERGED from [com.google.android.gms:play-services-phenotype:17.0.0] C:\Users\presa\.gradle\caches\transforms-2\files-2.1\e7eacb620055dfca96dbba09e0eebcc0\play-services-phenotype-17.0.0\AndroidManifest.xml:22:5-20
MERGED from [com.google.firebase:firebase-iid:19.0.0] C:\Users\presa\.gradle\caches\transforms-2\files-2.1\957b0793de52737dcb2d552fb13bbbac\firebase-iid-19.0.0\AndroidManifest.xml:28:5-45:19
MERGED from [com.google.firebase:firebase-iid:19.0.0] C:\Users\presa\.gradle\caches\transforms-2\files-2.1\957b0793de52737dcb2d552fb13bbbac\firebase-iid-19.0.0\AndroidManifest.xml:28:5-45:19
MERGED from [com.google.firebase:firebase-iid-interop:17.0.0] C:\Users\presa\.gradle\caches\transforms-2\files-2.1\5a8936eaac73f4db15dafeeb15844fce\firebase-iid-interop-17.0.0\AndroidManifest.xml:7:5-8:19
MERGED from [com.google.firebase:firebase-iid-interop:17.0.0] C:\Users\presa\.gradle\caches\transforms-2\files-2.1\5a8936eaac73f4db15dafeeb15844fce\firebase-iid-interop-17.0.0\AndroidManifest.xml:7:5-8:19
MERGED from [com.google.android.gms:play-services-base:17.0.0] C:\Users\presa\.gradle\caches\transforms-2\files-2.1\61050d192d7b40096effddbc75f65a23\play-services-base-17.0.0\AndroidManifest.xml:22:5-27:19
MERGED from [com.google.android.gms:play-services-base:17.0.0] C:\Users\presa\.gradle\caches\transforms-2\files-2.1\61050d192d7b40096effddbc75f65a23\play-services-base-17.0.0\AndroidManifest.xml:22:5-27:19
MERGED from [com.google.firebase:firebase-common:19.0.0] C:\Users\presa\.gradle\caches\transforms-2\files-2.1\daa9c6651247b129963b4bac8e5dd40c\firebase-common-19.0.0\AndroidManifest.xml:11:5-17:19
MERGED from [com.google.firebase:firebase-common:19.0.0] C:\Users\presa\.gradle\caches\transforms-2\files-2.1\daa9c6651247b129963b4bac8e5dd40c\firebase-common-19.0.0\AndroidManifest.xml:11:5-17:19
MERGED from [com.google.android.gms:play-services-tasks:17.0.0] C:\Users\presa\.gradle\caches\transforms-2\files-2.1\dffe7cebfa4e6032ec3fea966723cfe7\play-services-tasks-17.0.0\AndroidManifest.xml:7:5-20
MERGED from [com.google.android.gms:play-services-tasks:17.0.0] C:\Users\presa\.gradle\caches\transforms-2\files-2.1\dffe7cebfa4e6032ec3fea966723cfe7\play-services-tasks-17.0.0\AndroidManifest.xml:7:5-20
MERGED from [com.google.android.gms:play-services-stats:17.0.0] C:\Users\presa\.gradle\caches\transforms-2\files-2.1\313c8cab0ccb16f540d1ac3134a9a676\play-services-stats-17.0.0\AndroidManifest.xml:7:5-20
MERGED from [com.google.android.gms:play-services-stats:17.0.0] C:\Users\presa\.gradle\caches\transforms-2\files-2.1\313c8cab0ccb16f540d1ac3134a9a676\play-services-stats-17.0.0\AndroidManifest.xml:7:5-20
MERGED from [com.google.android.gms:play-services-basement:17.0.0] C:\Users\presa\.gradle\caches\transforms-2\files-2.1\3fd9097e2e9f30b3a98bceeedb85d579\jetified-play-services-basement-17.0.0\AndroidManifest.xml:22:5-26:19
MERGED from [com.google.android.gms:play-services-basement:17.0.0] C:\Users\presa\.gradle\caches\transforms-2\files-2.1\3fd9097e2e9f30b3a98bceeedb85d579\jetified-play-services-basement-17.0.0\AndroidManifest.xml:22:5-26:19
MERGED from [androidx.core:core:1.0.0] C:\Users\presa\.gradle\caches\transforms-2\files-2.1\c6efbb44fe0eccf93c45efc2f5961682\core-1.0.0\AndroidManifest.xml:22:5-89
MERGED from [androidx.core:core:1.0.0] C:\Users\presa\.gradle\caches\transforms-2\files-2.1\c6efbb44fe0eccf93c45efc2f5961682\core-1.0.0\AndroidManifest.xml:22:5-89
MERGED from [androidx.versionedparcelable:versionedparcelable:1.0.0] C:\Users\presa\.gradle\caches\transforms-2\files-2.1\43c49b12233cfc1bc27316e9746a37f4\versionedparcelable-1.0.0\AndroidManifest.xml:22:5-23:19
MERGED from [androidx.versionedparcelable:versionedparcelable:1.0.0] C:\Users\presa\.gradle\caches\transforms-2\files-2.1\43c49b12233cfc1bc27316e9746a37f4\versionedparcelable-1.0.0\AndroidManifest.xml:22:5-23:19
	android:appComponentFactory
		ADDED from [androidx.core:core:1.0.0] C:\Users\presa\.gradle\caches\transforms-2\files-2.1\c6efbb44fe0eccf93c45efc2f5961682\core-1.0.0\AndroidManifest.xml:22:18-86
	android:label
		ADDED from D:\android-Camera2Basic-master\Application\src\main\AndroidManifest.xml:29:9-41
	android:icon
		ADDED from D:\android-Camera2Basic-master\Application\src\main\AndroidManifest.xml:30:9-45
	android:allowBackup
		ADDED from D:\android-Camera2Basic-master\Application\src\main\AndroidManifest.xml:28:18-44
	android:theme
		ADDED from D:\android-Camera2Basic-master\Application\src\main\AndroidManifest.xml:31:9-45
activity#com.example.android.camera2basic.CameraActivity
ADDED from D:\android-Camera2Basic-master\Application\src\main\AndroidManifest.xml:33:9-39:20
	android:label
		ADDED from D:\android-Camera2Basic-master\Application\src\main\AndroidManifest.xml:34:19-51
	android:name
		ADDED from D:\android-Camera2Basic-master\Application\src\main\AndroidManifest.xml:33:19-49
intent-filter#action:name:android.intent.action.MAIN+category:name:android.intent.category.LAUNCHER
ADDED from D:\android-Camera2Basic-master\Application\src\main\AndroidManifest.xml:35:13-38:29
action#android.intent.action.MAIN
ADDED from D:\android-Camera2Basic-master\Application\src\main\AndroidManifest.xml:36:17-69
	android:name
		ADDED from D:\android-Camera2Basic-master\Application\src\main\AndroidManifest.xml:36:25-66
category#android.intent.category.LAUNCHER
ADDED from D:\android-Camera2Basic-master\Application\src\main\AndroidManifest.xml:37:17-77
	android:name
		ADDED from D:\android-Camera2Basic-master\Application\src\main\AndroidManifest.xml:37:27-74
uses-sdk
INJECTED from D:\android-Camera2Basic-master\Application\src\main\AndroidManifest.xml reason: use-sdk injection requested
INJECTED from D:\android-Camera2Basic-master\Application\src\main\AndroidManifest.xml
INJECTED from D:\android-Camera2Basic-master\Application\src\main\AndroidManifest.xml
MERGED from [com.google.firebase:firebase-ml-vision:23.0.0] C:\Users\presa\.gradle\caches\transforms-2\files-2.1\549fe3ab61b17fdb4f7c9f51f87c3f7d\firebase-ml-vision-23.0.0\AndroidManifest.xml:6:5-44
MERGED from [com.google.firebase:firebase-ml-vision:23.0.0] C:\Users\presa\.gradle\caches\transforms-2\files-2.1\549fe3ab61b17fdb4f7c9f51f87c3f7d\firebase-ml-vision-23.0.0\AndroidManifest.xml:6:5-44
MERGED from [androidx.legacy:legacy-support-v13:1.0.0] C:\Users\presa\.gradle\caches\transforms-2\files-2.1\82e544d3c3c8f788aa4ac329b2641a6e\legacy-support-v13-1.0.0\AndroidManifest.xml:20:5-44
MERGED from [androidx.legacy:legacy-support-v13:1.0.0] C:\Users\presa\.gradle\caches\transforms-2\files-2.1\82e544d3c3c8f788aa4ac329b2641a6e\legacy-support-v13-1.0.0\AndroidManifest.xml:20:5-44
MERGED from [androidx.legacy:legacy-support-v4:1.0.0] C:\Users\presa\.gradle\caches\transforms-2\files-2.1\78948776546368d752f57d4af80cff4f\legacy-support-v4-1.0.0\AndroidManifest.xml:20:5-44
MERGED from [androidx.legacy:legacy-support-v4:1.0.0] C:\Users\presa\.gradle\caches\transforms-2\files-2.1\78948776546368d752f57d4af80cff4f\legacy-support-v4-1.0.0\AndroidManifest.xml:20:5-44
MERGED from [androidx.cardview:cardview:1.0.0] C:\Users\presa\.gradle\caches\transforms-2\files-2.1\88d46ce597d410c8d9a1addcd2777129\cardview-1.0.0\AndroidManifest.xml:20:5-44
MERGED from [androidx.cardview:cardview:1.0.0] C:\Users\presa\.gradle\caches\transforms-2\files-2.1\88d46ce597d410c8d9a1addcd2777129\cardview-1.0.0\AndroidManifest.xml:20:5-44
MERGED from [androidx.appcompat:appcompat:1.0.0] C:\Users\presa\.gradle\caches\transforms-2\files-2.1\db46b13d3b2010db442dd5a45676e816\appcompat-1.0.0\AndroidManifest.xml:20:5-44
MERGED from [androidx.appcompat:appcompat:1.0.0] C:\Users\presa\.gradle\caches\transforms-2\files-2.1\db46b13d3b2010db442dd5a45676e816\appcompat-1.0.0\AndroidManifest.xml:20:5-44
MERGED from [androidx.exifinterface:exifinterface:1.0.0] C:\Users\presa\.gradle\caches\transforms-2\files-2.1\9b17c268919ccf64f4fc8447e7350842\exifinterface-1.0.0\AndroidManifest.xml:20:5-44
MERGED from [androidx.exifinterface:exifinterface:1.0.0] C:\Users\presa\.gradle\caches\transforms-2\files-2.1\9b17c268919ccf64f4fc8447e7350842\exifinterface-1.0.0\AndroidManifest.xml:20:5-44
MERGED from [com.google.android.gms:play-services-auth-base:17.0.0] C:\Users\presa\.gradle\caches\transforms-2\files-2.1\aa2ad13971d38900612758e2f62a2fd8\play-services-auth-base-17.0.0\AndroidManifest.xml:5:5-44
MERGED from [com.google.android.gms:play-services-auth-base:17.0.0] C:\Users\presa\.gradle\caches\transforms-2\files-2.1\aa2ad13971d38900612758e2f62a2fd8\play-services-auth-base-17.0.0\AndroidManifest.xml:5:5-44
MERGED from [com.google.android.gms:play-services-vision:18.0.0] C:\Users\presa\.gradle\caches\transforms-2\files-2.1\055b3fff76351920a108716f6f30f9af\play-services-vision-18.0.0\AndroidManifest.xml:5:5-44
MERGED from [com.google.android.gms:play-services-vision:18.0.0] C:\Users\presa\.gradle\caches\transforms-2\files-2.1\055b3fff76351920a108716f6f30f9af\play-services-vision-18.0.0\AndroidManifest.xml:5:5-44
MERGED from [com.google.android.gms:play-services-vision-image-label:18.0.0] C:\Users\presa\.gradle\caches\transforms-2\files-2.1\9bc86e3feb72b06887ee2a4754da19ef\play-services-vision-image-label-18.0.0\AndroidManifest.xml:5:5-44
MERGED from [com.google.android.gms:play-services-vision-image-label:18.0.0] C:\Users\presa\.gradle\caches\transforms-2\files-2.1\9bc86e3feb72b06887ee2a4754da19ef\play-services-vision-image-label-18.0.0\AndroidManifest.xml:5:5-44
MERGED from [com.google.android.gms:play-services-vision-common:18.0.0] C:\Users\presa\.gradle\caches\transforms-2\files-2.1\af25aa140282d81926a8061778810034\play-services-vision-common-18.0.0\AndroidManifest.xml:5:5-44
MERGED from [com.google.android.gms:play-services-vision-common:18.0.0] C:\Users\presa\.gradle\caches\transforms-2\files-2.1\af25aa140282d81926a8061778810034\play-services-vision-common-18.0.0\AndroidManifest.xml:5:5-44
MERGED from [com.google.firebase:firebase-ml-common:21.0.0] C:\Users\presa\.gradle\caches\transforms-2\files-2.1\adc041acf1828d2648ffd63edc4b2d7a\firebase-ml-common-21.0.0\AndroidManifest.xml:5:5-44
MERGED from [com.google.firebase:firebase-ml-common:21.0.0] C:\Users\presa\.gradle\caches\transforms-2\files-2.1\adc041acf1828d2648ffd63edc4b2d7a\firebase-ml-common-21.0.0\AndroidManifest.xml:5:5-44
MERGED from [com.google.android.gms:play-services-clearcut:17.0.0] C:\Users\presa\.gradle\caches\transforms-2\files-2.1\8d2e5bdc8e2afd0cf484a0d6eca9f960\play-services-clearcut-17.0.0\AndroidManifest.xml:20:5-44
MERGED from [com.google.android.gms:play-services-clearcut:17.0.0] C:\Users\presa\.gradle\caches\transforms-2\files-2.1\8d2e5bdc8e2afd0cf484a0d6eca9f960\play-services-clearcut-17.0.0\AndroidManifest.xml:20:5-44
MERGED from [com.google.android.gms:play-services-flags:17.0.0] C:\Users\presa\.gradle\caches\transforms-2\files-2.1\8d5c54ff533a7f542f5825ba614a2f0e\play-services-flags-17.0.0\AndroidManifest.xml:20:5-44
MERGED from [com.google.android.gms:play-services-flags:17.0.0] C:\Users\presa\.gradle\caches\transforms-2\files-2.1\8d5c54ff533a7f542f5825ba614a2f0e\play-services-flags-17.0.0\AndroidManifest.xml:20:5-44
MERGED from [com.google.android.gms:play-services-phenotype:17.0.0] C:\Users\presa\.gradle\caches\transforms-2\files-2.1\e7eacb620055dfca96dbba09e0eebcc0\play-services-phenotype-17.0.0\AndroidManifest.xml:20:5-44
MERGED from [com.google.android.gms:play-services-phenotype:17.0.0] C:\Users\presa\.gradle\caches\transforms-2\files-2.1\e7eacb620055dfca96dbba09e0eebcc0\play-services-phenotype-17.0.0\AndroidManifest.xml:20:5-44
MERGED from [com.google.firebase:firebase-iid:19.0.0] C:\Users\presa\.gradle\caches\transforms-2\files-2.1\957b0793de52737dcb2d552fb13bbbac\firebase-iid-19.0.0\AndroidManifest.xml:20:5-44
MERGED from [com.google.firebase:firebase-iid:19.0.0] C:\Users\presa\.gradle\caches\transforms-2\files-2.1\957b0793de52737dcb2d552fb13bbbac\firebase-iid-19.0.0\AndroidManifest.xml:20:5-44
MERGED from [com.google.firebase:firebase-iid-interop:17.0.0] C:\Users\presa\.gradle\caches\transforms-2\files-2.1\5a8936eaac73f4db15dafeeb15844fce\firebase-iid-interop-17.0.0\AndroidManifest.xml:5:5-44
MERGED from [com.google.firebase:firebase-iid-interop:17.0.0] C:\Users\presa\.gradle\caches\transforms-2\files-2.1\5a8936eaac73f4db15dafeeb15844fce\firebase-iid-interop-17.0.0\AndroidManifest.xml:5:5-44
MERGED from [com.google.android.gms:play-services-base:17.0.0] C:\Users\presa\.gradle\caches\transforms-2\files-2.1\61050d192d7b40096effddbc75f65a23\play-services-base-17.0.0\AndroidManifest.xml:20:5-44
MERGED from [com.google.android.gms:play-services-base:17.0.0] C:\Users\presa\.gradle\caches\transforms-2\files-2.1\61050d192d7b40096effddbc75f65a23\play-services-base-17.0.0\AndroidManifest.xml:20:5-44
MERGED from [com.google.firebase:firebase-common:19.0.0] C:\Users\presa\.gradle\caches\transforms-2\files-2.1\daa9c6651247b129963b4bac8e5dd40c\firebase-common-19.0.0\AndroidManifest.xml:6:5-8:41
MERGED from [com.google.firebase:firebase-common:19.0.0] C:\Users\presa\.gradle\caches\transforms-2\files-2.1\daa9c6651247b129963b4bac8e5dd40c\firebase-common-19.0.0\AndroidManifest.xml:6:5-8:41
MERGED from [com.google.android.gms:play-services-tasks:17.0.0] C:\Users\presa\.gradle\caches\transforms-2\files-2.1\dffe7cebfa4e6032ec3fea966723cfe7\play-services-tasks-17.0.0\AndroidManifest.xml:5:5-44
MERGED from [com.google.android.gms:play-services-tasks:17.0.0] C:\Users\presa\.gradle\caches\transforms-2\files-2.1\dffe7cebfa4e6032ec3fea966723cfe7\play-services-tasks-17.0.0\AndroidManifest.xml:5:5-44
MERGED from [com.google.android.gms:play-services-stats:17.0.0] C:\Users\presa\.gradle\caches\transforms-2\files-2.1\313c8cab0ccb16f540d1ac3134a9a676\play-services-stats-17.0.0\AndroidManifest.xml:5:5-44
MERGED from [com.google.android.gms:play-services-stats:17.0.0] C:\Users\presa\.gradle\caches\transforms-2\files-2.1\313c8cab0ccb16f540d1ac3134a9a676\play-services-stats-17.0.0\AndroidManifest.xml:5:5-44
MERGED from [com.google.android.gms:play-services-basement:17.0.0] C:\Users\presa\.gradle\caches\transforms-2\files-2.1\3fd9097e2e9f30b3a98bceeedb85d579\jetified-play-services-basement-17.0.0\AndroidManifest.xml:20:5-44
MERGED from [com.google.android.gms:play-services-basement:17.0.0] C:\Users\presa\.gradle\caches\transforms-2\files-2.1\3fd9097e2e9f30b3a98bceeedb85d579\jetified-play-services-basement-17.0.0\AndroidManifest.xml:20:5-44
MERGED from [androidx.media:media:1.0.0] C:\Users\presa\.gradle\caches\transforms-2\files-2.1\4d1cf7827ab5fc64a2e749e21bd2db69\media-1.0.0\AndroidManifest.xml:20:5-44
MERGED from [androidx.media:media:1.0.0] C:\Users\presa\.gradle\caches\transforms-2\files-2.1\4d1cf7827ab5fc64a2e749e21bd2db69\media-1.0.0\AndroidManifest.xml:20:5-44
MERGED from [androidx.fragment:fragment:1.0.0] C:\Users\presa\.gradle\caches\transforms-2\files-2.1\ee1ec9f89f00f8cddce4510008e1edca\fragment-1.0.0\AndroidManifest.xml:20:5-44
MERGED from [androidx.fragment:fragment:1.0.0] C:\Users\presa\.gradle\caches\transforms-2\files-2.1\ee1ec9f89f00f8cddce4510008e1edca\fragment-1.0.0\AndroidManifest.xml:20:5-44
MERGED from [androidx.vectordrawable:vectordrawable-animated:1.0.0] C:\Users\presa\.gradle\caches\transforms-2\files-2.1\e0d8aedfaec9936262ca213e73dd4b9f\vectordrawable-animated-1.0.0\AndroidManifest.xml:20:5-44
MERGED from [androidx.vectordrawable:vectordrawable-animated:1.0.0] C:\Users\presa\.gradle\caches\transforms-2\files-2.1\e0d8aedfaec9936262ca213e73dd4b9f\vectordrawable-animated-1.0.0\AndroidManifest.xml:20:5-44
MERGED from [androidx.legacy:legacy-support-core-ui:1.0.0] C:\Users\presa\.gradle\caches\transforms-2\files-2.1\17b125378fc55b264e31eccaff8fa6ca\legacy-support-core-ui-1.0.0\AndroidManifest.xml:20:5-44
MERGED from [androidx.legacy:legacy-support-core-ui:1.0.0] C:\Users\presa\.gradle\caches\transforms-2\files-2.1\17b125378fc55b264e31eccaff8fa6ca\legacy-support-core-ui-1.0.0\AndroidManifest.xml:20:5-44
MERGED from [androidx.legacy:legacy-support-core-utils:1.0.0] C:\Users\presa\.gradle\caches\transforms-2\files-2.1\240b5d9dac701614a3199e1fe97e5b6c\legacy-support-core-utils-1.0.0\AndroidManifest.xml:20:5-44
MERGED from [androidx.legacy:legacy-support-core-utils:1.0.0] C:\Users\presa\.gradle\caches\transforms-2\files-2.1\240b5d9dac701614a3199e1fe97e5b6c\legacy-support-core-utils-1.0.0\AndroidManifest.xml:20:5-44
MERGED from [androidx.vectordrawable:vectordrawable:1.0.0] C:\Users\presa\.gradle\caches\transforms-2\files-2.1\29ce464ac5ca0958a20e02a1ba3f00ec\vectordrawable-1.0.0\AndroidManifest.xml:20:5-44
MERGED from [androidx.vectordrawable:vectordrawable:1.0.0] C:\Users\presa\.gradle\caches\transforms-2\files-2.1\29ce464ac5ca0958a20e02a1ba3f00ec\vectordrawable-1.0.0\AndroidManifest.xml:20:5-44
MERGED from [androidx.loader:loader:1.0.0] C:\Users\presa\.gradle\caches\transforms-2\files-2.1\6d12fcce36df08538717b88e14b43a49\loader-1.0.0\AndroidManifest.xml:20:5-44
MERGED from [androidx.loader:loader:1.0.0] C:\Users\presa\.gradle\caches\transforms-2\files-2.1\6d12fcce36df08538717b88e14b43a49\loader-1.0.0\AndroidManifest.xml:20:5-44
MERGED from [androidx.viewpager:viewpager:1.0.0] C:\Users\presa\.gradle\caches\transforms-2\files-2.1\955a6585d7a9c18d6bf6a87f6ee65069\viewpager-1.0.0\AndroidManifest.xml:20:5-44
MERGED from [androidx.viewpager:viewpager:1.0.0] C:\Users\presa\.gradle\caches\transforms-2\files-2.1\955a6585d7a9c18d6bf6a87f6ee65069\viewpager-1.0.0\AndroidManifest.xml:20:5-44
MERGED from [androidx.coordinatorlayout:coordinatorlayout:1.0.0] C:\Users\presa\.gradle\caches\transforms-2\files-2.1\4536f117103b705f94cfbc0bddba178d\coordinatorlayout-1.0.0\AndroidManifest.xml:20:5-44
MERGED from [androidx.coordinatorlayout:coordinatorlayout:1.0.0] C:\Users\presa\.gradle\caches\transforms-2\files-2.1\4536f117103b705f94cfbc0bddba178d\coordinatorlayout-1.0.0\AndroidManifest.xml:20:5-44
MERGED from [androidx.drawerlayout:drawerlayout:1.0.0] C:\Users\presa\.gradle\caches\transforms-2\files-2.1\5e8839c5fdf906c0d681ada18dc250c8\drawerlayout-1.0.0\AndroidManifest.xml:20:5-44
MERGED from [androidx.drawerlayout:drawerlayout:1.0.0] C:\Users\presa\.gradle\caches\transforms-2\files-2.1\5e8839c5fdf906c0d681ada18dc250c8\drawerlayout-1.0.0\AndroidManifest.xml:20:5-44
MERGED from [androidx.slidingpanelayout:slidingpanelayout:1.0.0] C:\Users\presa\.gradle\caches\transforms-2\files-2.1\b62690d9dde2a6a00a94a6af7c0f163c\slidingpanelayout-1.0.0\AndroidManifest.xml:20:5-44
MERGED from [androidx.slidingpanelayout:slidingpanelayout:1.0.0] C:\Users\presa\.gradle\caches\transforms-2\files-2.1\b62690d9dde2a6a00a94a6af7c0f163c\slidingpanelayout-1.0.0\AndroidManifest.xml:20:5-44
MERGED from [androidx.customview:customview:1.0.0] C:\Users\presa\.gradle\caches\transforms-2\files-2.1\36abab4db82c302e39d424a4f8f4e29e\customview-1.0.0\AndroidManifest.xml:20:5-44
MERGED from [androidx.customview:customview:1.0.0] C:\Users\presa\.gradle\caches\transforms-2\files-2.1\36abab4db82c302e39d424a4f8f4e29e\customview-1.0.0\AndroidManifest.xml:20:5-44
MERGED from [androidx.swiperefreshlayout:swiperefreshlayout:1.0.0] C:\Users\presa\.gradle\caches\transforms-2\files-2.1\f8948b0232052db3e7b8f03c891701f8\swiperefreshlayout-1.0.0\AndroidManifest.xml:20:5-44
MERGED from [androidx.swiperefreshlayout:swiperefreshlayout:1.0.0] C:\Users\presa\.gradle\caches\transforms-2\files-2.1\f8948b0232052db3e7b8f03c891701f8\swiperefreshlayout-1.0.0\AndroidManifest.xml:20:5-44
MERGED from [androidx.asynclayoutinflater:asynclayoutinflater:1.0.0] C:\Users\presa\.gradle\caches\transforms-2\files-2.1\853d26324799c26871954791069483df\asynclayoutinflater-1.0.0\AndroidManifest.xml:20:5-44
MERGED from [androidx.asynclayoutinflater:asynclayoutinflater:1.0.0] C:\Users\presa\.gradle\caches\transforms-2\files-2.1\853d26324799c26871954791069483df\asynclayoutinflater-1.0.0\AndroidManifest.xml:20:5-44
MERGED from [androidx.core:core:1.0.0] C:\Users\presa\.gradle\caches\transforms-2\files-2.1\c6efbb44fe0eccf93c45efc2f5961682\core-1.0.0\AndroidManifest.xml:20:5-44
MERGED from [androidx.core:core:1.0.0] C:\Users\presa\.gradle\caches\transforms-2\files-2.1\c6efbb44fe0eccf93c45efc2f5961682\core-1.0.0\AndroidManifest.xml:20:5-44
MERGED from [androidx.versionedparcelable:versionedparcelable:1.0.0] C:\Users\presa\.gradle\caches\transforms-2\files-2.1\43c49b12233cfc1bc27316e9746a37f4\versionedparcelable-1.0.0\AndroidManifest.xml:20:5-44
MERGED from [androidx.versionedparcelable:versionedparcelable:1.0.0] C:\Users\presa\.gradle\caches\transforms-2\files-2.1\43c49b12233cfc1bc27316e9746a37f4\versionedparcelable-1.0.0\AndroidManifest.xml:20:5-44
MERGED from [androidx.cursoradapter:cursoradapter:1.0.0] C:\Users\presa\.gradle\caches\transforms-2\files-2.1\a7ed0ca913094dcd572a2a491ee77296\cursoradapter-1.0.0\AndroidManifest.xml:20:5-44
MERGED from [androidx.cursoradapter:cursoradapter:1.0.0] C:\Users\presa\.gradle\caches\transforms-2\files-2.1\a7ed0ca913094dcd572a2a491ee77296\cursoradapter-1.0.0\AndroidManifest.xml:20:5-44
MERGED from [androidx.lifecycle:lifecycle-runtime:2.0.0] C:\Users\presa\.gradle\caches\transforms-2\files-2.1\43face5bbfcb9a9521bfe7a06757c249\lifecycle-runtime-2.0.0\AndroidManifest.xml:20:5-44
MERGED from [androidx.lifecycle:lifecycle-runtime:2.0.0] C:\Users\presa\.gradle\caches\transforms-2\files-2.1\43face5bbfcb9a9521bfe7a06757c249\lifecycle-runtime-2.0.0\AndroidManifest.xml:20:5-44
MERGED from [androidx.documentfile:documentfile:1.0.0] C:\Users\presa\.gradle\caches\transforms-2\files-2.1\e4a94d2054024c8be95b68226af78a53\documentfile-1.0.0\AndroidManifest.xml:20:5-44
MERGED from [androidx.documentfile:documentfile:1.0.0] C:\Users\presa\.gradle\caches\transforms-2\files-2.1\e4a94d2054024c8be95b68226af78a53\documentfile-1.0.0\AndroidManifest.xml:20:5-44
MERGED from [androidx.localbroadcastmanager:localbroadcastmanager:1.0.0] C:\Users\presa\.gradle\caches\transforms-2\files-2.1\37caa00d68abfda0e932890140749490\localbroadcastmanager-1.0.0\AndroidManifest.xml:20:5-44
MERGED from [androidx.localbroadcastmanager:localbroadcastmanager:1.0.0] C:\Users\presa\.gradle\caches\transforms-2\files-2.1\37caa00d68abfda0e932890140749490\localbroadcastmanager-1.0.0\AndroidManifest.xml:20:5-44
MERGED from [androidx.print:print:1.0.0] C:\Users\presa\.gradle\caches\transforms-2\files-2.1\e1d01877c650a22b3c257891754df4cc\print-1.0.0\AndroidManifest.xml:20:5-44
MERGED from [androidx.print:print:1.0.0] C:\Users\presa\.gradle\caches\transforms-2\files-2.1\e1d01877c650a22b3c257891754df4cc\print-1.0.0\AndroidManifest.xml:20:5-44
MERGED from [androidx.interpolator:interpolator:1.0.0] C:\Users\presa\.gradle\caches\transforms-2\files-2.1\0694e27135a967a4619b8381997d15ff\interpolator-1.0.0\AndroidManifest.xml:20:5-44
MERGED from [androidx.interpolator:interpolator:1.0.0] C:\Users\presa\.gradle\caches\transforms-2\files-2.1\0694e27135a967a4619b8381997d15ff\interpolator-1.0.0\AndroidManifest.xml:20:5-44
MERGED from [androidx.lifecycle:lifecycle-viewmodel:2.0.0] C:\Users\presa\.gradle\caches\transforms-2\files-2.1\34bd167e41796762d187a04a2472565c\lifecycle-viewmodel-2.0.0\AndroidManifest.xml:20:5-44
MERGED from [androidx.lifecycle:lifecycle-viewmodel:2.0.0] C:\Users\presa\.gradle\caches\transforms-2\files-2.1\34bd167e41796762d187a04a2472565c\lifecycle-viewmodel-2.0.0\AndroidManifest.xml:20:5-44
MERGED from [androidx.lifecycle:lifecycle-livedata:2.0.0] C:\Users\presa\.gradle\caches\transforms-2\files-2.1\cfc7a075599825242ccb3bf9049138d1\lifecycle-livedata-2.0.0\AndroidManifest.xml:20:5-44
MERGED from [androidx.lifecycle:lifecycle-livedata:2.0.0] C:\Users\presa\.gradle\caches\transforms-2\files-2.1\cfc7a075599825242ccb3bf9049138d1\lifecycle-livedata-2.0.0\AndroidManifest.xml:20:5-44
MERGED from [androidx.lifecycle:lifecycle-livedata-core:2.0.0] C:\Users\presa\.gradle\caches\transforms-2\files-2.1\942ae5bb408d75da4f7f89b1ab4a5794\lifecycle-livedata-core-2.0.0\AndroidManifest.xml:20:5-44
MERGED from [androidx.lifecycle:lifecycle-livedata-core:2.0.0] C:\Users\presa\.gradle\caches\transforms-2\files-2.1\942ae5bb408d75da4f7f89b1ab4a5794\lifecycle-livedata-core-2.0.0\AndroidManifest.xml:20:5-44
MERGED from [androidx.arch.core:core-runtime:2.0.0] C:\Users\presa\.gradle\caches\transforms-2\files-2.1\3f7255e5c39577612d42757c6a1a973c\core-runtime-2.0.0\AndroidManifest.xml:20:5-44
MERGED from [androidx.arch.core:core-runtime:2.0.0] C:\Users\presa\.gradle\caches\transforms-2\files-2.1\3f7255e5c39577612d42757c6a1a973c\core-runtime-2.0.0\AndroidManifest.xml:20:5-44
INJECTED from D:\android-Camera2Basic-master\Application\src\main\AndroidManifest.xml
INJECTED from D:\android-Camera2Basic-master\Application\src\main\AndroidManifest.xml
	android:targetSdkVersion
		INJECTED from D:\android-Camera2Basic-master\Application\src\main\AndroidManifest.xml
		ADDED from D:\android-Camera2Basic-master\Application\src\main\AndroidManifest.xml
		INJECTED from D:\android-Camera2Basic-master\Application\src\main\AndroidManifest.xml
	android:minSdkVersion
		INJECTED from D:\android-Camera2Basic-master\Application\src\main\AndroidManifest.xml
		ADDED from D:\android-Camera2Basic-master\Application\src\main\AndroidManifest.xml
		INJECTED from D:\android-Camera2Basic-master\Application\src\main\AndroidManifest.xml
service#com.google.firebase.components.ComponentDiscoveryService
ADDED from [com.google.firebase:firebase-ml-vision:23.0.0] C:\Users\presa\.gradle\caches\transforms-2\files-2.1\549fe3ab61b17fdb4f7c9f51f87c3f7d\firebase-ml-vision-23.0.0\AndroidManifest.xml:9:9-15:19
MERGED from [com.google.firebase:firebase-ml-common:21.0.0] C:\Users\presa\.gradle\caches\transforms-2\files-2.1\adc041acf1828d2648ffd63edc4b2d7a\firebase-ml-common-21.0.0\AndroidManifest.xml:8:9-14:19
MERGED from [com.google.firebase:firebase-ml-common:21.0.0] C:\Users\presa\.gradle\caches\transforms-2\files-2.1\adc041acf1828d2648ffd63edc4b2d7a\firebase-ml-common-21.0.0\AndroidManifest.xml:8:9-14:19
MERGED from [com.google.firebase:firebase-iid:19.0.0] C:\Users\presa\.gradle\caches\transforms-2\files-2.1\957b0793de52737dcb2d552fb13bbbac\firebase-iid-19.0.0\AndroidManifest.xml:29:9-35:19
MERGED from [com.google.firebase:firebase-iid:19.0.0] C:\Users\presa\.gradle\caches\transforms-2\files-2.1\957b0793de52737dcb2d552fb13bbbac\firebase-iid-19.0.0\AndroidManifest.xml:29:9-35:19
	android:exported
		ADDED from [com.google.firebase:firebase-ml-vision:23.0.0] C:\Users\presa\.gradle\caches\transforms-2\files-2.1\549fe3ab61b17fdb4f7c9f51f87c3f7d\firebase-ml-vision-23.0.0\AndroidManifest.xml:11:13-37
	android:name
		ADDED from [com.google.firebase:firebase-ml-vision:23.0.0] C:\Users\presa\.gradle\caches\transforms-2\files-2.1\549fe3ab61b17fdb4f7c9f51f87c3f7d\firebase-ml-vision-23.0.0\AndroidManifest.xml:10:13-84
meta-data#com.google.firebase.components:com.google.firebase.ml.vision.VisionRegistrar
ADDED from [com.google.firebase:firebase-ml-vision:23.0.0] C:\Users\presa\.gradle\caches\transforms-2\files-2.1\549fe3ab61b17fdb4f7c9f51f87c3f7d\firebase-ml-vision-23.0.0\AndroidManifest.xml:12:13-14:85
	android:value
		ADDED from [com.google.firebase:firebase-ml-vision:23.0.0] C:\Users\presa\.gradle\caches\transforms-2\files-2.1\549fe3ab61b17fdb4f7c9f51f87c3f7d\firebase-ml-vision-23.0.0\AndroidManifest.xml:14:17-82
	android:name
		ADDED from [com.google.firebase:firebase-ml-vision:23.0.0] C:\Users\presa\.gradle\caches\transforms-2\files-2.1\549fe3ab61b17fdb4f7c9f51f87c3f7d\firebase-ml-vision-23.0.0\AndroidManifest.xml:13:17-108
meta-data#com.google.firebase.components:com.google.firebase.ml.common.CommonComponentRegistrar
ADDED from [com.google.firebase:firebase-ml-common:21.0.0] C:\Users\presa\.gradle\caches\transforms-2\files-2.1\adc041acf1828d2648ffd63edc4b2d7a\firebase-ml-common-21.0.0\AndroidManifest.xml:11:13-13:85
	android:value
		ADDED from [com.google.firebase:firebase-ml-common:21.0.0] C:\Users\presa\.gradle\caches\transforms-2\files-2.1\adc041acf1828d2648ffd63edc4b2d7a\firebase-ml-common-21.0.0\AndroidManifest.xml:13:17-82
	android:name
		ADDED from [com.google.firebase:firebase-ml-common:21.0.0] C:\Users\presa\.gradle\caches\transforms-2\files-2.1\adc041acf1828d2648ffd63edc4b2d7a\firebase-ml-common-21.0.0\AndroidManifest.xml:12:17-117
uses-permission#android.permission.ACCESS_NETWORK_STATE
ADDED from [com.google.firebase:firebase-iid:19.0.0] C:\Users\presa\.gradle\caches\transforms-2\files-2.1\957b0793de52737dcb2d552fb13bbbac\firebase-iid-19.0.0\AndroidManifest.xml:22:5-79
	android:name
		ADDED from [com.google.firebase:firebase-iid:19.0.0] C:\Users\presa\.gradle\caches\transforms-2\files-2.1\957b0793de52737dcb2d552fb13bbbac\firebase-iid-19.0.0\AndroidManifest.xml:22:22-76
uses-permission#android.permission.INTERNET
ADDED from [com.google.firebase:firebase-iid:19.0.0] C:\Users\presa\.gradle\caches\transforms-2\files-2.1\957b0793de52737dcb2d552fb13bbbac\firebase-iid-19.0.0\AndroidManifest.xml:23:5-67
	android:name
		ADDED from [com.google.firebase:firebase-iid:19.0.0] C:\Users\presa\.gradle\caches\transforms-2\files-2.1\957b0793de52737dcb2d552fb13bbbac\firebase-iid-19.0.0\AndroidManifest.xml:23:22-64
uses-permission#android.permission.WAKE_LOCK
ADDED from [com.google.firebase:firebase-iid:19.0.0] C:\Users\presa\.gradle\caches\transforms-2\files-2.1\957b0793de52737dcb2d552fb13bbbac\firebase-iid-19.0.0\AndroidManifest.xml:24:5-68
	android:name
		ADDED from [com.google.firebase:firebase-iid:19.0.0] C:\Users\presa\.gradle\caches\transforms-2\files-2.1\957b0793de52737dcb2d552fb13bbbac\firebase-iid-19.0.0\AndroidManifest.xml:24:22-65
uses-permission#com.google.android.c2dm.permission.RECEIVE
ADDED from [com.google.firebase:firebase-iid:19.0.0] C:\Users\presa\.gradle\caches\transforms-2\files-2.1\957b0793de52737dcb2d552fb13bbbac\firebase-iid-19.0.0\AndroidManifest.xml:26:5-82
	android:name
		ADDED from [com.google.firebase:firebase-iid:19.0.0] C:\Users\presa\.gradle\caches\transforms-2\files-2.1\957b0793de52737dcb2d552fb13bbbac\firebase-iid-19.0.0\AndroidManifest.xml:26:22-79
meta-data#com.google.firebase.components:com.google.firebase.iid.Registrar
ADDED from [com.google.firebase:firebase-iid:19.0.0] C:\Users\presa\.gradle\caches\transforms-2\files-2.1\957b0793de52737dcb2d552fb13bbbac\firebase-iid-19.0.0\AndroidManifest.xml:32:13-34:85
	android:value
		ADDED from [com.google.firebase:firebase-iid:19.0.0] C:\Users\presa\.gradle\caches\transforms-2\files-2.1\957b0793de52737dcb2d552fb13bbbac\firebase-iid-19.0.0\AndroidManifest.xml:34:17-82
	android:name
		ADDED from [com.google.firebase:firebase-iid:19.0.0] C:\Users\presa\.gradle\caches\transforms-2\files-2.1\957b0793de52737dcb2d552fb13bbbac\firebase-iid-19.0.0\AndroidManifest.xml:33:17-96
receiver#com.google.firebase.iid.FirebaseInstanceIdReceiver
ADDED from [com.google.firebase:firebase-iid:19.0.0] C:\Users\presa\.gradle\caches\transforms-2\files-2.1\957b0793de52737dcb2d552fb13bbbac\firebase-iid-19.0.0\AndroidManifest.xml:37:9-44:20
	android:exported
		ADDED from [com.google.firebase:firebase-iid:19.0.0] C:\Users\presa\.gradle\caches\transforms-2\files-2.1\957b0793de52737dcb2d552fb13bbbac\firebase-iid-19.0.0\AndroidManifest.xml:39:13-36
	android:permission
		ADDED from [com.google.firebase:firebase-iid:19.0.0] C:\Users\presa\.gradle\caches\transforms-2\files-2.1\957b0793de52737dcb2d552fb13bbbac\firebase-iid-19.0.0\AndroidManifest.xml:40:13-73
	android:name
		ADDED from [com.google.firebase:firebase-iid:19.0.0] C:\Users\presa\.gradle\caches\transforms-2\files-2.1\957b0793de52737dcb2d552fb13bbbac\firebase-iid-19.0.0\AndroidManifest.xml:38:13-78
intent-filter#action:name:com.google.android.c2dm.intent.RECEIVE
ADDED from [com.google.firebase:firebase-iid:19.0.0] C:\Users\presa\.gradle\caches\transforms-2\files-2.1\957b0793de52737dcb2d552fb13bbbac\firebase-iid-19.0.0\AndroidManifest.xml:41:13-43:29
action#com.google.android.c2dm.intent.RECEIVE
ADDED from [com.google.firebase:firebase-iid:19.0.0] C:\Users\presa\.gradle\caches\transforms-2\files-2.1\957b0793de52737dcb2d552fb13bbbac\firebase-iid-19.0.0\AndroidManifest.xml:42:17-81
	android:name
		ADDED from [com.google.firebase:firebase-iid:19.0.0] C:\Users\presa\.gradle\caches\transforms-2\files-2.1\957b0793de52737dcb2d552fb13bbbac\firebase-iid-19.0.0\AndroidManifest.xml:42:25-78
activity#com.google.android.gms.common.api.GoogleApiActivity
ADDED from [com.google.android.gms:play-services-base:17.0.0] C:\Users\presa\.gradle\caches\transforms-2\files-2.1\61050d192d7b40096effddbc75f65a23\play-services-base-17.0.0\AndroidManifest.xml:23:9-26:75
	android:exported
		ADDED from [com.google.android.gms:play-services-base:17.0.0] C:\Users\presa\.gradle\caches\transforms-2\files-2.1\61050d192d7b40096effddbc75f65a23\play-services-base-17.0.0\AndroidManifest.xml:25:13-37
	android:theme
		ADDED from [com.google.android.gms:play-services-base:17.0.0] C:\Users\presa\.gradle\caches\transforms-2\files-2.1\61050d192d7b40096effddbc75f65a23\play-services-base-17.0.0\AndroidManifest.xml:26:13-72
	android:name
		ADDED from [com.google.android.gms:play-services-base:17.0.0] C:\Users\presa\.gradle\caches\transforms-2\files-2.1\61050d192d7b40096effddbc75f65a23\play-services-base-17.0.0\AndroidManifest.xml:24:13-79
provider#com.google.firebase.provider.FirebaseInitProvider
ADDED from [com.google.firebase:firebase-common:19.0.0] C:\Users\presa\.gradle\caches\transforms-2\files-2.1\daa9c6651247b129963b4bac8e5dd40c\firebase-common-19.0.0\AndroidManifest.xml:12:9-16:39
	android:authorities
		ADDED from [com.google.firebase:firebase-common:19.0.0] C:\Users\presa\.gradle\caches\transforms-2\files-2.1\daa9c6651247b129963b4bac8e5dd40c\firebase-common-19.0.0\AndroidManifest.xml:14:13-72
	android:exported
		ADDED from [com.google.firebase:firebase-common:19.0.0] C:\Users\presa\.gradle\caches\transforms-2\files-2.1\daa9c6651247b129963b4bac8e5dd40c\firebase-common-19.0.0\AndroidManifest.xml:15:13-37
	android:initOrder
		ADDED from [com.google.firebase:firebase-common:19.0.0] C:\Users\presa\.gradle\caches\transforms-2\files-2.1\daa9c6651247b129963b4bac8e5dd40c\firebase-common-19.0.0\AndroidManifest.xml:16:13-36
	android:name
		ADDED from [com.google.firebase:firebase-common:19.0.0] C:\Users\presa\.gradle\caches\transforms-2\files-2.1\daa9c6651247b129963b4bac8e5dd40c\firebase-common-19.0.0\AndroidManifest.xml:13:13-77
meta-data#com.google.android.gms.version
ADDED from [com.google.android.gms:play-services-basement:17.0.0] C:\Users\presa\.gradle\caches\transforms-2\files-2.1\3fd9097e2e9f30b3a98bceeedb85d579\jetified-play-services-basement-17.0.0\AndroidManifest.xml:23:9-25:69
	android:value
		ADDED from [com.google.android.gms:play-services-basement:17.0.0] C:\Users\presa\.gradle\caches\transforms-2\files-2.1\3fd9097e2e9f30b3a98bceeedb85d579\jetified-play-services-basement-17.0.0\AndroidManifest.xml:25:13-66
	android:name
		ADDED from [com.google.android.gms:play-services-basement:17.0.0] C:\Users\presa\.gradle\caches\transforms-2\files-2.1\3fd9097e2e9f30b3a98bceeedb85d579\jetified-play-services-basement-17.0.0\AndroidManifest.xml:24:13-58
